relatorio_1_30102025
…
ggsave("fig/frequency_boxplot_severity.png", 
       bg = "white", height = 8,width = 10)

Meta-analise

Severidade e rendimento

ma

# A tibble: 6,582 × 15
   study trial_name    year cultivar location   lat   lon state commercial group
   <dbl> <chr>        <dbl> <chr>    <chr>    <dbl> <dbl> <chr> <chr>      <chr>
 1     1 Embrapa Sin…  2017 M8210 I… Sinop    -119. -555. MT    ATIVUM + … tria…
 2     1 Embrapa Sin…  2017 M8210 I… Sinop    -119. -555. MT    ATIVUM + … tria…
 3     1 Embrapa Sin…  2017 M8210 I… Sinop    -119. -555. MT    ATIVUM + … tria…
 4     1 Embrapa Sin…  2017 M8210 I… Sinop    -119. -555. MT    ATIVUM + … tria…
 5     2 AgroCarregal  2017 CD 2728… Rio Ver… -178. -509. GO    ATIVUM + … tria…
 6     2 AgroCarregal  2017 CD 2728… Rio Ver… -178. -509. GO    ATIVUM + … tria…
 7     2 AgroCarregal  2017 CD 2728… Rio Ver… -178. -509. GO    ATIVUM + … tria…
 8     2 AgroCarregal  2017 CD 2728… Rio Ver… -178. -509. GO    ATIVUM + … tria…
 9     3 Fundação MS…  2017 BMX Pot… Bonito   -211. -565. MS    ATIVUM + … tria…
10     3 Fundação MS…  2017 BMX Pot… Bonito   -211. -565. MS    ATIVUM + … tria…
# ℹ 6,572 more rows
# ℹ 5 more variables: ai <chr>, block <dbl>, sev <dbl>, yld <dbl>, rust <dbl>
…
